# config: 9->2->1
# epochs: 450
# run:    10
# Training: 2
Max epochs      450. Desired error: 0.0000010000.
Epochs            1. Current error: 0.1327966750. Bit fail 182.
Epochs          200. Current error: 0.0658896193. Bit fail 52.
Epochs          400. Current error: 0.0591342859. Bit fail 42.
Epochs          450. Current error: 0.0569626614. Bit fail 39.
# Train MSE: 0.0569627
# Test MSE: 0.0683054
# Training: 2
Max epochs      450. Desired error: 0.0000010000.
Epochs            1. Current error: 0.1463193595. Bit fail 189.
Epochs          200. Current error: 0.0680671111. Bit fail 54.
Epochs          400. Current error: 0.0666801855. Bit fail 53.
Epochs          450. Current error: 0.0664355606. Bit fail 53.
# Train MSE: 0.0664356
# Test MSE: 0.0772234
# Training: 2
Max epochs      450. Desired error: 0.0000010000.
Epochs            1. Current error: 0.1522296220. Bit fail 191.
Epochs          200. Current error: 0.0672136769. Bit fail 55.
Epochs          400. Current error: 0.0657322854. Bit fail 56.
Epochs          450. Current error: 0.0655050650. Bit fail 56.
# Train MSE: 0.0655051
# Test MSE: 0.0790127
# Training: 2
Max epochs      450. Desired error: 0.0000010000.
Epochs            1. Current error: 0.1466424316. Bit fail 189.
Epochs          200. Current error: 0.0532277226. Bit fail 37.
Epochs          400. Current error: 0.0505236983. Bit fail 33.
Epochs          450. Current error: 0.0506804436. Bit fail 34.
# Train MSE: 0.0506804
# Test MSE: 0.0664391
# Training: 2
Max epochs      450. Desired error: 0.0000010000.
Epochs            1. Current error: 0.1359354109. Bit fail 183.
Epochs          200. Current error: 0.0545252822. Bit fail 39.
Epochs          400. Current error: 0.0503293462. Bit fail 33.
Epochs          450. Current error: 0.0504746959. Bit fail 33.
# Train MSE: 0.0504747
# Test MSE: 0.0666117
# Training: 2
Max epochs      450. Desired error: 0.0000010000.
Epochs            1. Current error: 0.1628520489. Bit fail 197.
Epochs          200. Current error: 0.0676388517. Bit fail 53.
Epochs          400. Current error: 0.0655345395. Bit fail 51.
Epochs          450. Current error: 0.0653078929. Bit fail 49.
# Train MSE: 0.0653079
# Test MSE: 0.078744
# Training: 2
Max epochs      450. Desired error: 0.0000010000.
Epochs            1. Current error: 0.1442562044. Bit fail 188.
Epochs          200. Current error: 0.0533015653. Bit fail 38.
Epochs          400. Current error: 0.0505033173. Bit fail 31.
Epochs          450. Current error: 0.0504048280. Bit fail 31.
# Train MSE: 0.0504048
# Test MSE: 0.0662216
# Training: 2
Max epochs      450. Desired error: 0.0000010000.
Epochs            1. Current error: 0.1403634250. Bit fail 185.
Epochs          200. Current error: 0.0520380288. Bit fail 37.
Epochs          400. Current error: 0.0507395156. Bit fail 36.
Epochs          450. Current error: 0.0505846478. Bit fail 37.
# Train MSE: 0.0505846
# Test MSE: 0.0671071
# Training: 2
Max epochs      450. Desired error: 0.0000010000.
Epochs            1. Current error: 0.1398088485. Bit fail 185.
Epochs          200. Current error: 0.0538779609. Bit fail 33.
Epochs          400. Current error: 0.0508114509. Bit fail 29.
Epochs          450. Current error: 0.0506711304. Bit fail 29.
# Train MSE: 0.0506711
# Test MSE: 0.0658193
# Training: 2
Max epochs      450. Desired error: 0.0000010000.
Epochs            1. Current error: 0.1269103885. Bit fail 181.
Epochs          200. Current error: 0.0682929382. Bit fail 54.
Epochs          400. Current error: 0.0669879615. Bit fail 55.
Epochs          450. Current error: 0.0666038170. Bit fail 53.
# Train MSE: 0.0666038
# Test MSE: 0.0770961
# Training: 2
Max epochs      450. Desired error: 0.0000010000.
Epochs            1. Current error: 0.1417038292. Bit fail 188.
Epochs          200. Current error: 0.0683572590. Bit fail 55.
Epochs          400. Current error: 0.0669203103. Bit fail 52.
Epochs          450. Current error: 0.0666412115. Bit fail 50.
# Train MSE: 0.0666412
# Test MSE: 0.0779455
